// Jest Snapshot v1, https://goo.gl/fbAQLP

exports[`Comment renders the component 1`] = `
<gl-card-stub
  bodyclass=""
  class="gl-mb-5"
  footerclass=""
  headerclass=""
>
  <gl-markdown-stub
    text="Incident update comment"
  />
   
  <div
    class="gl-display-inline-block gl-mt-5 gl-font-sm gl-text-gray-700"
  >
    
    Posted 3 months ago
  
  </div>
   
  <gl-tooltip-stub
    target="function () {
              return _vm.$refs.postedTime
            }"
  >
    <div
      class="gl-display-block gl-align-items-center gl-font-sm"
    >
      <div
        class="gl-mb-2"
      >
        Feb 21, 2020 9:20am
      </div>
       
      <div>
        GMT+2
      </div>
    </div>
  </gl-tooltip-stub>
</gl-card-stub>
`;
