{
    "Version": "2012-10-17",
    "Statement": [
        {
            "Sid": "AllowS3BucketCreate",
            "Effect": "Allow",
            "Action": [
                "s3:CreateBucket",
                "s3:ListAllMyBuckets"
            ],
            "Resource": "arn:aws:s3:::*"
        }
    ]
}
